CCTK_REAL omegaSRJ[] = {
19127,
0.649974,
0.649974,
0.649974,
3.57356,
0.649974,
0.649974,
0.649974,
3.57356,
0.649974,
3.57356,
0.649974,
0.649974,
33.039,
0.649974,
0.649974,
0.649974,
0.649974,
0.649974,
3.57356,
0.649974,
3.57356,
0.649974,
3.57356,
0.649974,
0.649974,
3.57356,
0.649974,
3.57356,
0.649974,
0.649974,
33.039,
0.649974,
0.649974,
0.649974,
0.649974,
3.57356,
0.649974,
33.039,
0.649974,
0.649974,
0.649974,
0.649974,
0.649974,
3.57356,
0.649974,
3.57356,
0.649974,
324.322,
0.649974,
0.649974,
0.649974,
0.649974,
0.649974,
3.57356,
0.649974,
3.57356,
0.649974,
3.57356,
0.649974,
0.649974,
3.57356,
0.649974,
0.649974,
3.57356,
0.649974,
0.649974,
3.57356,
0.649974,
3.57356,
0.649974,
0.649974,
33.039,
0.649974,
0.649974,
0.649974,
0.649974,
3.57356,
0.649974,
33.039,
0.649974,
0.649974,
0.649974,
0.649974,
3.57356,
0.649974,
3.57356,
0.649974,
0.649974,
33.039,
0.649974,
0.649974,
0.649974,
0.649974,
0.649974,
3.57356,
0.649974,
33.039,
0.649974,
0.649974,
0.649974,
0.649974,
0.649974,
3.57356,
0.649974,
3.57356,
0.649974,
33.039,
0.649974,
0.649974,
0.649974,
0.649974,
0.649974,
0.649974,
3.57356,
324.322,
0.649974,
0.649974,
0.649974,
0.649974,
0.649974,
3.57356,
0.649974,
0.649974,
3.57356,
0.649974,
3.57356,
0.649974,
3.57356,
0.649974,
3.57356,
0.649974,
3.57356,
0.649974,
0.649974,
3.57356,
0.649974,
33.039,
0.649974,
0.649974,
0.649974,
0.649974,
0.649974,
3.57356,
0.649974,
3.57356,
0.649974,
33.039,
0.649974,
0.649974,
0.649974,
0.649974,
0.649974,
0.649974,
324.322,
0.649974,
0.649974,
0.649974,
0.649974,
3.57356,
0.649974,
3.57356,
0.649974,
3.57356,
0.649974,
0.649974,
3.57356,
0.649974,
3.57356,
0.649974,
3.57356,
0.649974,
0.649974,
3.57356,
0.649974,
3.57356,
0.649974,
0.649974,
33.039,
0.649974,
0.649974,
0.649974,
0.649974,
3.57356,
0.649974,
324.322,
0.649974,
0.649974,
0.649974,
0.649974,
3.57356,
0.649974,
0.649974,
3.57356,
0.649974,
3.57356,
0.649974,
0.649974,
3.57356,
0.649974,
0.649974,
3.57356,
0.649974,
3.57356,
0.649974,
0.649974,
3.57356,
0.649974,
0.649974,
3.57356,
0.649974,
0.649974,
33.039,
0.649974,
0.649974,
0.649974,
3.57356,
0.649974,
0.649974,
3055.94,
0.649974,
0.649974,
0.649974,
3.57356,
0.649974,
0.649974,
3.57356,
0.649974,
0.649974,
3.57356,
0.649974,
3.57356,
0.649974,
0.649974,
3.57356,
0.649974,
0.649974,
3.57356,
0.649974,
0.649974,
33.039,
0.649974,
0.649974,
0.649974,
3.57356,
0.649974,
0.649974,
3.57356,
0.649974,
0.649974,
33.039,
0.649974,
0.649974,
0.649974,
3.57356,
0.649974,
0.649974,
33.039,
0.649974,
0.649974,
0.649974,
3.57356,
0.649974,
0.649974,
3.57356,
0.649974,
0.649974,
33.039,
0.649974,
0.649974,
0.649974,
3.57356,
0.649974,
0.649974,
33.039,
0.649974,
0.649974,
0.649974,
0.649974,
3.57356,
0.649974,
3.57356,
0.649974,
0.649974,
33.039,
0.649974,
0.649974,
0.649974,
0.649974,
0.649974,
3.57356,
0.649974,
33.039,
0.649974,
0.649974,
0.649974,
0.649974,
0.649974,
3.57356,
0.649974,
33.039,
0.649974,
0.649974,
0.649974,
0.649974,
0.649974,
0.649974,
3.57356,
0.649974,
324.322,
0.649974,
0.649974,
0.649974,
0.649974,
3.57356,
0.649974,
0.649974,
3.57356,
0.649974,
3.57356,
0.649974,
3.57356,
0.649974,
3.57356,
0.649974,
3.57356,
0.649974,
3.57356,
0.649974,
0.649974,
3.57356,
0.649974,
33.039,
0.649974,
0.649974,
0.649974,
0.649974,
0.649974,
3.57356,
0.649974,
3.57356,
0.649974,
324.322,
0.649974,
0.649974,
0.649974,
0.649974,
0.649974,
3.57356,
0.649974,
3.57356,
0.649974,
3.57356,
0.649974,
0.649974,
3.57356,
0.649974,
3.57356,
0.649974,
0.649974,
3.57356,
0.649974,
0.649974,
3.57356,
0.649974,
0.649974,
33.039,
0.649974,
0.649974,
0.649974,
3.57356,
0.649974,
0.649974,
33.039,
0.649974,
0.649974,
0.649974,
0.649974,
3.57356,
0.649974,
324.322,
0.649974,
0.649974,
0.649974,
0.649974,
0.649974,
3.57356,
0.649974,
3.57356,
0.649974,
3.57356,
0.649974,
0.649974,
3.57356,
0.649974,
3.57356,
0.649974,
0.649974,
3.57356,
0.649974,
0.649974,
3.57356,
0.649974,
0.649974,
3.57356,
0.649974,
0.649974,
33.039,
0.649974,
0.649974,
0.649974,
3.57356,
0.649974,
0.649974,
324.322,
0.649974,
0.649974,
0.649974,
3.57356,
0.649974,
0.649974,
3.57356,
0.649974,
3.57356,
0.649974,
0.649974,
3.57356,
0.649974,
0.649974,
3.57356,
0.649974,
0.649974,
3.57356,
0.649974,
0.649974,
3.57356,
0.649974,
0.649974,
33.039,
0.649974,
0.649974,
0.649974,
3.57356,
0.649974,
0.649974,
3.57356,
0.649974,
33.039,
0.649974,
0.649974,
0.649974,
0.649974,
324.322,
0.649974,
0.649974,
0.649974,
3.57356,
0.649974,
0.649974,
3.57356,
0.649974,
3.57356,
0.649974,
0.649974,
3.57356,
0.649974,
0.649974,
3.57356,
0.649974,
0.649974,
3.57356,
0.649974,
0.649974,
3.57356,
0.649974,
0.649974,
3.57356,
0.649974,
33.039,
0.649974,
0.649974,
0.649974,
0.649974,
3.57356,
0.649974,
3055.94,
0.649974,
0.649974,
0.649974,
0.649974,
3.57356,
0.649974,
3.57356,
0.649974,
0.649974,
3.57356,
0.649974,
0.649974,
3.57356,
0.649974,
0.649974,
3.57356,
0.649974,
0.649974,
3.57356,
0.649974,
0.649974,
33.039,
0.649974,
0.649974,
0.649974,
3.57356,
0.649974,
0.649974,
3.57356,
0.649974,
33.039,
0.649974,
0.649974,
0.649974,
0.649974,
3.57356,
0.649974,
0.649974,
33.039,
0.649974,
0.649974,
0.649974,
3.57356,
0.649974,
0.649974,
3.57356,
0.649974,
0.649974,
33.039,
0.649974,
0.649974,
0.649974,
3.57356,
0.649974,
0.649974,
3.57356,
0.649974,
33.039,
0.649974,
0.649974,
0.649974,
0.649974,
3.57356,
0.649974,
0.649974,
33.039,
0.649974,
0.649974,
0.649974,
3.57356,
0.649974,
0.649974,
3.57356,
0.649974,
33.039,
0.649974,
0.649974,
0.649974,
0.649974,
3.57356,
0.649974,
0.649974,
33.039,
0.649974,
0.649974,
0.649974,
0.649974,
3.57356,
0.649974,
324.322,
0.649974,
0.649974,
0.649974,
0.649974,
0.649974,
3.57356,
0.649974,
3.57356,
0.649974,
3.57356,
0.649974,
3.57356,
0.649974,
0.649974,
3.57356,
0.649974,
0.649974,
3.57356,
0.649974,
0.649974,
3.57356,
0.649974,
0.649974,
3.57356,
0.649974,
33.039,
0.649974,
0.649974,
0.649974,
0.649974,
3.57356,
0.649974,
324.322,
0.649974,
0.649974,
0.649974,
0.649974,
3.57356,
0.649974,
3.57356,
0.649974,
0.649974,
3.57356,
0.649974,
0.649974,
3.57356,
0.649974,
0.649974,
3.57356,
0.649974,
0.649974,
3.57356,
0.649974,
0.649974,
3.57356,
0.649974,
33.039,
0.649974,
0.649974,
0.649974,
0.649974,
3.57356,
0.649974,
0.649974,
3055.94,
0.649974,
0.649974,
3.57356,
0.649974,
0.649974,
3.57356,
0.649974,
0.649974,
3.57356,
0.649974,
0.649974,
3.57356,
0.649974,
0.649974,
3.57356,
0.649974,
0.649974,
3.57356,
0.649974,
33.039,
0.649974,
0.649974,
0.649974,
0.649974,
3.57356,
0.649974,
0.649974,
3.57356,
0.649974,
33.039,
0.649974,
0.649974,
0.649974,
0.649974,
3.57356,
0.649974,
0.649974,
33.039,
0.649974,
0.649974,
0.649974,
3.57356,
0.649974,
0.649974,
3.57356,
0.649974,
33.039,
0.649974,
0.649974,
0.649974,
0.649974,
3.57356,
0.649974,
0.649974,
33.039,
0.649974,
0.649974,
0.649974,
3.57356,
0.649974,
0.649974,
3.57356,
0.649974,
0.649974,
33.039,
0.649974,
0.649974,
0.649974,
3.57356,
0.649974,
0.649974,
3.57356,
0.649974,
33.039,
0.649974,
0.649974,
0.649974,
0.649974,
0.649974,
3.57356,
0.649974,
33.039,
0.649974,
0.649974,
0.649974,
0.649974,
0.649974,
3.57356,
0.649974,
324.322,
0.649974,
0.649974,
0.649974,
0.649974,
0.649974,
3.57356,
0.649974,
3.57356,
0.649974,
3.57356,
0.649974,
3.57356,
0.649974,
0.649974,
3.57356,
0.649974,
3.57356,
0.649974,
0.649974,
3.57356,
0.649974,
0.649974,
33.039,
0.649974,
0.649974,
0.649974,
0.649974,
3.57356,
0.649974,
3.57356,
0.649974,
33.039,
0.649974,
0.649974,
0.649974,
0.649974,
0.649974,
3.57356,
0.649974,
33.039,
0.649974,
0.649974,
0.649974,
0.649974,
0.649974,
3.57356,
0.649974,
3.57356,
3.57356,
0.649974
};
